…
sample_data
#> # A tibble: 100 × 5
#>          x1     x2       y y_bin y_multinom
#>       <dbl>  <dbl>   <dbl> <int> <fct>     
#>  1 -2.44    -1.06  -1.07       1 Q1        
#>  2 -0.00557 -0.796 -0.227      1 Q1        
#>  3  0.622   -1.76  -0.736      1 Q1        
#>  4  1.15    -0.691  0.206      1 Q2        
#>  5 -1.82    -0.559 -0.736      0 Q1        
#>  6 -0.247   -0.537 -0.206      1 Q1        
#>  7 -0.244    0.227  0.0339     1 Q2        
#>  8 -0.283    0.978  0.869      0 Q3        
#>  9 -0.554   -0.209 -0.186      1 Q2        
#> 10  0.629   -1.40  -0.345      1 Q1        
#> # ℹ 90 more rows
…
