…
data
#> # A tibble: 100 × 5
#>       ID grade     gender     Q1          Q2                        
#>    <int> <int+lbl> <dbl+lbl>  <dbl+lbl>   <dbl+lbl>                 
#>  1     1 1 [1年]   1 [男]     -1.58       4 [まったくあてはまらない]
#>  2     2 3 [3年]   2 [女]     -0.0841     2 [まああてはまる]        
#>  3     3 1 [1年]   2 [女]     -2.09       3 [あまりあてはまらない]  
#>  4     4 2 [2年]   2 [女]      0.00357    9 [無回答]                
#>  5     5 1 [1年]   2 [女]     -0.356      2 [まああてはまる]        
#>  6     6 2 [2年]   2 [女]      1.15       2 [まああてはまる]        
#>  7     7 3 [3年]   1 [男]     -0.221      2 [まああてはまる]        
#>  8     8 2 [2年]   9 [無回答]  1.02       1 [あてはまる]            
#>  9     9 1 [1年]   9 [無回答] -0.264      1 [あてはまる]            
#> 10    10 3 [3年]   2 [女]      9 [無回答] 9 [無回答]                
#> # ℹ 90 more rows
…
#> # A tibble: 3 × 2
#>   grade         n
#>   <int+lbl> <int>
#> 1 1 [1年]      28
#> 2 2 [2年]      27
#> 3 3 [3年]      45
count(data, gender)
#> # A tibble: 3 × 2
#>   gender         n
#>   <dbl+lbl>  <int>
#> 1 1 [男]        41
#> 2 2 [女]        49
#> 3 9 [無回答]    10
count(data, Q1, sort = TRUE)
#> # A tibble: 85 × 2
#>    Q1              n
#>    <dbl+lbl>   <int>
#>  1  9 [無回答]    12
#>  2  8 [非該当]     5
#>  3 -2.09           1
#>  4 -2.06           1
#>  5 -1.58           1
#>  6 -1.41           1
#>  7 -1.38           1
#>  8 -1.33           1
#>  9 -1.26           1
#> 10 -1.20           1
#> # ℹ 75 more rows
…
